{
    "info": [
        {
            "name": "Quang Vi",
            "sex": "male",
            "age": 23,
            "hobby": "sleeping"
        },
        {
            "name": "Saitama",
            "sex": "male",
            "age": 25,
            "hobby": "reading comic"
        },
        {
            "name": "Songoku",
            "sex": "male",
            "age": 999,
            "hobby": "eating"
        }
    ]
}